<?xml version="1.0" encoding="UTF-8" standalone="no"?>
<svg
   viewBox="0 0 725.67 725.67"
   version="1.1"
   id="svg55"
   sodipodi:docname="21.svg"
   inkscape:version="1.1.1 (3bf5ae0d25, 2021-09-20, custom)"
   xmlns:inkscape="http://www.inkscape.org/namespaces/inkscape"
   xmlns:sodipodi="http://sodipodi.sourceforge.net/DTD/sodipodi-0.dtd"
   xmlns="http://www.w3.org/2000/svg"
   xmlns:svg="http://www.w3.org/2000/svg">
  <sodipodi:namedview
     id="namedview57"
     pagecolor="#505050"
     bordercolor="#ffffff"
     borderopacity="1"
     inkscape:pageshadow="0"
     inkscape:pageopacity="0"
     inkscape:pagecheckerboard="1"
     showgrid="false"
     inkscape:zoom="0.86402912"
     inkscape:cx="362.25631"
     inkscape:cy="362.83499"
     inkscape:window-width="1920"
     inkscape:window-height="1022"
     inkscape:window-x="0"
     inkscape:window-y="0"
     inkscape:window-maximized="1"
     inkscape:current-layer="Capa_11" />
  <defs
     id="defs4">
    <style
       id="style2">.cls-1{fill:#dfd7e8;stroke:#dfd7e8}.cls-1,.cls-2,.cls-3,.cls-4,.cls-7,.cls-8{stroke-linecap:round;stroke-linejoin:round}.cls-1,.cls-2,.cls-3,.cls-8{stroke-width:2.68px}.cls-2,.cls-7{fill:none}.cls-2,.cls-3,.cls-4,.cls-6,.cls-7,.cls-8{stroke:#531975}.cls-3,.cls-4{fill:#846599}.cls-4{stroke-width:4.46px}.cls-5,.cls-6,.cls-8{fill:#531975}.cls-6{font-size:52.37px;stroke-miterlimit:10;stroke-width:.89px;font-family:AgencyFB-Reg,Agency FB}.cls-7{stroke-width:1.78px}</style>
  </defs>
  <g
     id="Capa_11"
     data-name="Capa 11">
    <path
       class="cls-1"
       d="m 389.06,280.91 c -4.3,-5.16 -15,-16.48 -32.16,-19.94 -4.62,-0.93 -29.76,-5.37 -38.06,8.64 -4.15,7 -3.13,17 1.16,23.41 8.45,12.54 32.48,15.28 58.56,3.18"
       id="path6" />
    <path
       class="cls-1"
       d="m 316.55,280.53 c 0,0 -33.15,1.05 -45,15 A 87.93,87.93 0 0 0 266.34,267 c -4.34,-11.86 -11.71,-32 -31.4,-39.54 -15.68,-6 -37.5,-3.27 -50,11.63 -14.65,17.48 -7.61,41.22 -5.25,49.18 8.34,28.16 32.54,41.09 38.06,43.87 -8.1,7.15 -27.33,26.13 -33,56.24 -7.14,38 12.2,68.08 19.87,80 39.76,61.82 119.06,71.11 141.75,73.77 a 231.3,231.3 0 0 0 36,1.42 c 18,-0.69 125.75,-4.79 164.88,-79.18 5.87,-11.16 23.23,-48.69 9.1,-89.48 a 103.7,103.7 0 0 0 -28.79,-42.78 c 6.73,-3.36 23.58,-12.92 33.87,-33.12 4.31,-8.45 16,-31.37 4.53,-52.95 -9.39,-17.66 -31.56,-29.26 -51.53,-23.82 -23.08,6.29 -30.77,31.94 -32.81,38.77 a 68.38,68.38 0 0 0 -1.31,33.23 c -7.55,-4.38 -17.19,-8.5 -28.31,-12.79 -15.5,-6 -33.71,-11.13 -44.54,-7.81 -1.39,-7.73 -11.41,-60 -45.94,-71.12 -4,-1.29 -19.79,-6.37 -28.88,2 -9.74,9 -4.82,26.92 -3.94,29.91 4.76,16.07 18.41,23.58 21.66,25.25"
       id="path8" />
    <path
       class="cls-2"
       d="m 494.05,299.06 c -1.69,-25.1 7.37,-47 23.89,-55.46 a 36.41,36.41 0 0 1 16.82,-3.9"
       id="path10" />
    <path
       class="cls-2"
       d="m 376,427.41 q 0.13,13.71 0.29,27.4 l 18.9,14.6 15.28,-11.41 15.11,11.39 12.67,-9.4 11.22,9.4 9.26,-6.43 7.31,6.43"
       id="path12" />
    <path
       class="cls-3"
       d="M 386.55,274.05 A 87.94,87.94 0 0 0 342.67,255.86"
       id="path14" />
    <path
       class="cls-2"
       d="m 316.2,277.87 a 35.75,35.75 0 0 0 11.12,11.78 c 10,6.53 20.9,5.83 30.71,5.2 a 83.57,83.57 0 0 0 19.74,-3.71"
       id="path16" />
    <path
       class="cls-4"
       d="m 440.91,349.45 23.4,34.67 z"
       id="path18" />
    <path
       class="cls-4"
       d="m 464.31,349.45 -23.4,34.67 z"
       id="path20" />
    <path
       class="cls-4"
       d="m 291.24,349.45 23.4,34.67 z"
       id="path22" />
    <path
       class="cls-4"
       d="m 314.64,349.45 -23.4,34.67 z"
       id="path24" />
    <path
       class="cls-5"
       d="m 312.23,219.66 c -33.47,-5.13 -66.94,-10.3 -100.55,-14.26 -16.79,-2 -33.63,-3.86 -50.46,-4.47 -4.2,-0.13 -8.41,-0.17 -12.56,0.08 a 48,48 0 0 0 -6.09,0.72 14.3,14.3 0 0 0 -2.75,0.79 c -0.83,0.32 -1.5,0.84 -1.54,1.1 -0.04,0.26 -0.06,0.24 0,0.51 a 3.16,3.16 0 0 0 0.51,0.94 11.67,11.67 0 0 0 1.94,2 41.51,41.51 0 0 0 5,3.49 c 3.54,2.15 7.27,4.07 11.05,5.89 7.58,3.65 15.35,6.93 23.18,10.1 7.83,3.17 15.7,6.22 23.61,9.18 15.84,5.92 31.79,11.54 47.8,17 q 48,16.44 96.52,31.45 48.52,15.01 97.37,28.68 48.89,13.68 98.21,25.63 c 16.46,3.93 33,7.65 49.55,10.86 8.29,1.6 16.61,3.07 25,4.23 4.18,0.57 8.36,1.07 12.55,1.37 a 57.54,57.54 0 0 0 12.39,-0.13 9.35,9.35 0 0 0 2.71,-0.8 2.6,2.6 0 0 0 0.86,-0.67 1.21,1.21 0 0 0 0.21,-0.8 5.16,5.16 0 0 0 -1.17,-2.29 17.73,17.73 0 0 0 -2.08,-2.18 77.09,77.09 0 0 0 -10.1,-7.4 c -7.12,-4.51 -14.55,-8.56 -22,-12.5 -7.45,-3.94 -15.06,-7.71 -22.68,-11.41 -7.62,-3.7 -15.24,-7.35 -22.91,-10.94 15.52,6.76 31,13.72 46.12,21.3 7.58,3.81 15.1,7.72 22.38,12.13 a 79.07,79.07 0 0 1 10.51,7.39 20.1,20.1 0 0 1 2.33,2.37 6.89,6.89 0 0 1 1.67,3.3 3.39,3.39 0 0 1 -0.54,2.22 4.48,4.48 0 0 1 -1.56,1.33 11.29,11.29 0 0 1 -3.33,1.09 37,37 0 0 1 -6.51,0.53 c -2.16,0 -4.29,-0.07 -6.43,-0.2 -4.26,-0.26 -8.49,-0.71 -12.71,-1.23 -8.43,-1.07 -16.81,-2.45 -25.16,-3.95 -16.69,-3 -33.27,-6.56 -49.8,-10.3 -33.06,-7.46 -65.86,-16 -98.56,-24.89 -32.7,-8.89 -65.2,-18.46 -97.58,-28.49 C 314.25,278.4 282,267.82 250,256.73 c -16,-5.58 -31.95,-11.31 -47.8,-17.35 -15.85,-6.04 -31.61,-12.32 -46.92,-19.85 -3.82,-1.91 -7.6,-3.9 -11.27,-6.19 a 44,44 0 0 1 -5.35,-3.85 14.73,14.73 0 0 1 -2.44,-2.58 6.69,6.69 0 0 1 -0.95,-1.87 3.78,3.78 0 0 1 0.1,-2.58 4.27,4.27 0 0 1 1.53,-1.87 7.41,7.41 0 0 1 1.72,-0.92 16.84,16.84 0 0 1 3.35,-0.93 50.54,50.54 0 0 1 6.51,-0.7 c 4.31,-0.21 8.58,-0.11 12.83,0.08 8.51,0.38 17,1.15 25.4,2 8.4,0.85 16.84,1.94 25.24,3.08 16.79,2.3 33.52,4.94 50.23,7.69 q 12.53,2.07 25,4.24 z"
       id="path26" />
    <path
       class="cls-5"
       d="m 400.63,218.24 24.48,-4 q 12.24,-1.89 24.52,-3.68 c 16.36,-2.37 32.74,-4.62 49.17,-6.55 q 12.31,-1.42 24.69,-2.49 c 8.25,-0.71 16.52,-1.28 24.82,-1.5 4.16,-0.1 8.32,-0.13 12.51,0.08 2.09,0.13 4.19,0.26 6.3,0.58 a 24,24 0 0 1 6.42,1.68 8,8 0 0 1 1.63,1 9,9 0 0 1 0.79,0.73 5.21,5.21 0 0 1 0.65,1 4.12,4.12 0 0 1 0.33,2.45 5.61,5.61 0 0 1 -0.73,2 12.48,12.48 0 0 1 -2.24,2.75 29.19,29.19 0 0 1 -2.51,2.13 83.9,83.9 0 0 1 -10.76,6.65 c -14.77,7.77 -30.16,13.93 -45.59,19.93 -15.43,6 -31,11.56 -46.65,17 -31.27,10.81 -62.75,21 -94.36,30.69 -31.61,9.69 -63.46,18.72 -95.43,27.2 -31.97,8.48 -64.09,16.41 -96.46,23.3 -16.18,3.45 -32.41,6.68 -48.76,9.35 -8.18,1.32 -16.38,2.52 -24.65,3.32 -4.13,0.4 -8.29,0.7 -12.48,0.73 a 52,52 0 0 1 -6.33,-0.3 20.55,20.55 0 0 1 -3.21,-0.6 7.15,7.15 0 0 1 -3.22,-1.69 3.33,3.33 0 0 1 -0.92,-2.05 4.41,4.41 0 0 1 0.42,-2 10.45,10.45 0 0 1 2,-2.77 35.39,35.39 0 0 1 4.94,-4.11 124.52,124.52 0 0 1 10.58,-6.63 c 7.22,-4.09 14.62,-7.79 22.07,-11.39 14.9,-7.19 30,-13.81 45.27,-20.26 q -11.28,5.15 -22.48,10.45 c -7.46,3.54 -14.91,7.12 -22.27,10.86 -7.36,3.74 -14.67,7.58 -21.75,11.79 a 120.32,120.32 0 0 0 -10.28,6.73 34.51,34.51 0 0 0 -4.53,3.94 8.6,8.6 0 0 0 -1.61,2.23 2.41,2.41 0 0 0 -0.22,1 1.16,1.16 0 0 0 0.36,0.71 5.32,5.32 0 0 0 2.24,1.06 20.36,20.36 0 0 0 2.88,0.5 50.55,50.55 0 0 0 6,0.2 c 4.07,-0.08 8.16,-0.42 12.25,-0.86 8.17,-0.9 16.31,-2.19 24.43,-3.6 16.24,-2.86 32.4,-6.28 48.5,-9.92 q 48.27,-11 96.1,-24 c 31.89,-8.61 63.66,-17.67 95.22,-27.39 31.56,-9.72 63,-19.75 94.29,-30.42 15.62,-5.33 31.19,-10.82 46.62,-16.66 q 11.56,-4.38 23,-9.11 c 7.6,-3.17 15.15,-6.47 22.41,-10.23 a 80.18,80.18 0 0 0 10.38,-6.24 22.84,22.84 0 0 0 2.25,-1.85 9.58,9.58 0 0 0 1.7,-2 2.48,2.48 0 0 0 0.37,-0.9 0.82,0.82 0 0 0 -0.06,-0.57 3.09,3.09 0 0 0 -1.55,-1.23 21.37,21.37 0 0 0 -5.52,-1.48 c -2,-0.32 -4,-0.48 -6,-0.63 -4.06,-0.26 -8.17,-0.28 -12.27,-0.23 -8.22,0.11 -16.45,0.58 -24.68,1.18 -8.23,0.6 -16.45,1.35 -24.66,2.17 -32.89,3.14 -65.65,7.55 -98.41,11.95 z"
       id="path28" />
    <path
       class="cls-5"
       d="m 112.98,259.15 -3.43,-7.81 -8.28,-1.56 6.25,-5.73 -1.1,-8.48 7.3,4.27 7.6,-3.69 -1.74,8.37 5.8,6.2 -8.38,0.91 z"
       id="path30" />
    <path
       class="cls-5"
       d="m 589.31,295.79 -0.98,-6.47 -5.81,-2.85 5.76,-2.95 0.87,-6.49 4.55,4.65 6.34,-1.16 -2.95,5.82 3.05,5.78 -6.37,-1.06 z"
       id="path32" />
    <path
       class="cls-5"
       d="m 575.42,230.43 3.37,-3.89 -1.25,-5.03 4.68,2.06 4.32,-2.76 -0.47,5.16 3.91,3.32 -4.97,1.14 -1.9,4.8 -2.6,-4.45 z"
       id="path34" />
    <path
       class="cls-5"
       d="m 594.18,254.2 4.8,-4.24 -0.72,-6.42 5.46,3.32 5.79,-2.67 -1.43,6.29 4.29,4.77 -6.33,0.56 -3.14,5.63 -2.49,-5.95 z"
       id="path36" />
    <path
       class="cls-5"
       d="m 336.3,178.55 4.66,-6 -2.23,-7.31 7.07,2.65 6.15,-4.41 -0.3,7.65 6.03,4.58 -7.25,2.07 -2.42,7.24 -4.19,-6.36 z"
       id="path38" />
    <path
       class="cls-5"
       d="m 129.56,283.41 3.14,-3.94 -1.42,-4.86 4.66,1.81 4.12,-2.87 -0.26,5.07 3.96,3.08 -4.82,1.32 -1.67,4.78 -2.72,-4.25 z"
       id="path40" />
    <path
       class="cls-2"
       d="m 254.28,299.06 c 1.69,-25.1 -7.38,-47 -23.89,-55.46 a 36.48,36.48 0 0 0 -16.82,-3.9"
       id="path44" />
    <path
       class="cls-2"
       d="m 376,427.41 q -0.15,13.71 -0.29,27.4 L 356.8,469.41 341.51,458 326.39,469.39 313.72,460 l -11.22,9.4 -9.26,-6.4 -7.31,6.43"
       id="path46" />
    <path
       class="cls-7"
       d="m 473.69,465.45 a 8.34,8.34 0 0 1 1.46,5.95 c -0.67,3.74 -4.57,6.82 -9.55,6.93"
       id="path48" />
    <path
       class="cls-7"
       d="m 277.84,465.45 a 8.34,8.34 0 0 0 -1.46,5.95 c 0.68,3.74 4.57,6.82 9.55,6.93"
       id="path50" />
    <path
       class="cls-8"
       d="m 422.11,412.06 c -0.39,9.16 -24.79,16.57 -44.11,16.81 -22.07,0.27 -48.46,-8.67 -48.58,-18.2 -0.12,-9.53 25.75,-19.82 48.58,-18.94 20.86,0.8 44.5,11.17 44.11,20.33 z"
       id="path52" />
  </g>
</svg>
